[
  {
    "id": "volla",
    "name": "Volla",
    "description": "Built by our trusted partner Volla, these phones come with Ubuntu Touch pre-installed as an alternative. If you don't have experience flashing devices, Volla can sell you a fully functional Ubuntu Touch device, no technical skills required.",
    "devices": [
      "vidofnir",
      {
        "name": "Volla Tablet",
        "image": "https://gitlab.com/design3680819/ut-hw-models/-/raw/main/Tablets/Volla%20Tablet/VollaTablet.png"
      },
      "mimameid"
    ]
  },
  {
    "id": "fairphone",
    "name": "Fairphone",
    "description": "Ubuntu Touch and Fairphone share a common vision: we both put the user first. If you want a free and private Linux operating system on a highly repairable, durable and environmentally friendly phone, Ubuntu Touch on the Fairphone is your choice.",
    "devices": [
      {
        "name": "Fairphone 5",
        "image": "https://gitlab.com/design3680819/ut-hw-models/-/raw/main/Phones/Fairphone%205/Fairphone5.png"
      },
      "FP4",
      "FP3"
    ]
  },
  {
    "id": "pine64",
    "name": "Pine64",
    "description": "Community development and mainline Linux. If you value open hardware and don't want to use an adaptation layer to run Ubuntu Touch on devices built for Android, Pine64 offers phones and tablets built to run mainline Linux natively. These devices are not feature complete yet.",
    "devices": ["pinephone", "pinetab"]
  },
  {
    "id": "community",
    "name": "Community",
    "description": "Top-rated devices based on compatibility and continued maintenance by the porter. These ports are built by the community and have achieved feature completeness. We want to encourage community effort by highlighting the most popular devices that receive frequent updates.",
    "devices": ["sargo", "billie2", "surya"]
  }
]
